%YAML 1.1
%TAG !u! tag:unity3d.com,2011:
--- !u!114 &11400000
MonoBehaviour:
  m_ObjectHideFlags: 0
  m_PrefabParentObject: {fileID: 0}
  m_PrefabInternal: {fileID: 0}
  m_GameObject: {fileID: 0}
  m_Enabled: 1
  m_EditorHideFlags: 0
  m_Script: {fileID: 11500000, guid: 52203cd03ad4086478fea76a495be591, type: 3}
  m_Name: Ability Click Spot
  m_EditorClassIdentifier: 
  clickSpotAnimation: {fileID: 7400000, guid: bac65621874908c4aa9b3141a4114078, type: 2}
