%YAML 1.1
%TAG !u! tag:unity3d.com,2011:
--- !u!221 &22100000
AnimatorOverrideController:
  m_ObjectHideFlags: 0
  m_PrefabParentObject: {fileID: 0}
  m_PrefabInternal: {fileID: 0}
  m_Name: Tank 102
  m_Controller: {fileID: 9100000, guid: ee5a0f28fa0c78d4387ba13f48303a75, type: 2}
  m_Clips:
  - m_OriginalClip: {fileID: 7400000, guid: 3e09460910d1b4e4a9397e4827edc6ce, type: 2}
    m_OverrideClip: {fileID: 7400000, guid: 7432b4af1ae74394cbf8972faa701c76, type: 2}
  - m_OriginalClip: {fileID: 7400000, guid: 4764d71615340fe49be35eac7a71b9d2, type: 2}
    m_OverrideClip: {fileID: 7400000, guid: 7432b4af1ae74394cbf8972faa701c76, type: 2}
  - m_OriginalClip: {fileID: 7400000, guid: 9ad4f2b3a51cdf4468b86ff8faf84cfb, type: 2}
    m_OverrideClip: {fileID: 7400000, guid: 7432b4af1ae74394cbf8972faa701c76, type: 2}
