%YAML 1.1
%TAG !u! tag:unity3d.com,2011:
--- !u!114 &11400000
MonoBehaviour:
  m_ObjectHideFlags: 0
  m_PrefabParentObject: {fileID: 0}
  m_PrefabInternal: {fileID: 0}
  m_GameObject: {fileID: 0}
  m_Enabled: 1
  m_EditorHideFlags: 0
  m_Script: {fileID: 11500000, guid: 411e926c6136f9f478902cb466373692, type: 3}
  m_Name: Tank_Info
  m_EditorClassIdentifier: 
  unitName: Tank 101
  unitDescription: 'Base Fighting Attack, useful to increase your army, and crushing
    your enemy.

    built from the Core Directly'
  unitIcon: {fileID: 21300000, guid: ce67f2d9a299f494aaa35f36ebae4376, type: 3}
