%YAML 1.1
%TAG !u! tag:unity3d.com,2011:
--- !u!114 &11400000
MonoBehaviour:
  m_ObjectHideFlags: 0
  m_PrefabParentObject: {fileID: 0}
  m_PrefabInternal: {fileID: 0}
  m_GameObject: {fileID: 0}
  m_Enabled: 1
  m_EditorHideFlags: 0
  m_Script: {fileID: 11500000, guid: 411e926c6136f9f478902cb466373692, type: 3}
  m_Name: Core_Info
  m_EditorClassIdentifier: 
  unitName: Core
  unitDescription: 'this is the core unit, responsiblef for construction of other
    unit and defenses

    also capable of fighting'
  unitIcon: {fileID: 21300000, guid: c6c43ea3f730d084bb92f60a601a1880, type: 3}
