%YAML 1.1
%TAG !u! tag:unity3d.com,2011:
--- !u!114 &11400000
MonoBehaviour:
  m_ObjectHideFlags: 0
  m_PrefabParentObject: {fileID: 0}
  m_PrefabInternal: {fileID: 0}
  m_GameObject: {fileID: 0}
  m_Enabled: 1
  m_EditorHideFlags: 0
  m_Script: {fileID: 11500000, guid: ea5b2c67a748ffc4a90dc1aafef726a8, type: 3}
  m_Name: Core_Body
  m_EditorClassIdentifier: 
  totalHealth: 50
  currency: 5
  rewardOnDeath: 10
